<svg width="59" height="61" viewBox="0 0 59 61" fill="none" xmlns="http://www.w3.org/2000/svg">
<path d="M40.1058 13.6273V6.81354C40.1058 6.09679 39.5246 5.51562 38.8079 5.51562H7.01008C6.29333 5.51562 5.71216 6.09679 5.71216 6.81354V13.6273C5.71216 14.3441 6.29333 14.9252 7.01008 14.9252H38.808C39.5246 14.9252 40.1058 14.3441 40.1058 13.6273ZM37.5101 12.3294H8.30787V8.11134H37.51V12.3294H37.5101Z" fill="#1E4265"/>
<path d="M57.4912 13.5094L54.9681 10.9863C53.7135 9.73141 51.2879 9.35004 49.9199 10.718L45.2972 15.3407V1.29792C45.2971 0.581168 44.7161 0 43.9993 0H1.81843C1.10168 0 0.520508 0.581168 0.520508 1.29792V59.7022C0.520508 60.4189 1.10168 61.0001 1.81843 61.0001H43.9993C44.7161 61.0001 45.2972 60.4189 45.2972 59.7022V30.4831L57.4913 18.289C58.809 16.9715 58.809 14.8272 57.4912 13.5094ZM3.11646 58.4043V2.59572H42.7015V17.9364L22.1392 38.4986C22.1302 38.5076 22.1251 38.5155 22.1169 38.5242C21.9955 38.6521 21.8981 38.804 21.8362 38.9747L18.6056 47.9042C18.4347 48.3766 18.5517 48.905 18.906 49.2611C19.154 49.5103 19.4867 49.6435 19.8263 49.6435C19.9721 49.6435 20.1193 49.619 20.2615 49.5682L29.2279 46.3746C29.4078 46.3106 29.5664 46.2073 29.6988 46.0776C29.7025 46.0749 29.7069 46.0732 29.7103 46.0696L42.7012 33.0788V58.4042L3.11646 58.4043ZM23.5829 41.7777L26.4235 44.6184L21.983 46.2L23.5829 41.7777ZM55.6558 16.4538L54.0305 18.0791L50.1301 14.1787L51.7554 12.5534C51.9744 12.3344 52.7512 12.4403 53.1328 12.8217L55.6558 15.3447C55.9614 15.6507 55.9614 16.1481 55.6558 16.4538Z" fill="#1E4265"/>
<path d="M37.1044 52.0762H8.71344C7.99658 52.0762 7.41553 52.6573 7.41553 53.3741C7.41553 54.0908 7.99669 54.672 8.71344 54.672H37.1044C37.8212 54.672 38.4023 54.0908 38.4023 53.3741C38.4023 52.6573 37.8212 52.0762 37.1044 52.0762Z" fill="#1E4265"/>
<path d="M29.885 23.6855H8.71344C7.99669 23.6855 7.41553 24.2667 7.41553 24.9835C7.41553 25.7002 7.99669 26.2814 8.71344 26.2814H29.885C30.6017 26.2814 31.1829 25.7002 31.1829 24.9835C31.1829 24.2667 30.6017 23.6855 29.885 23.6855Z" fill="#1E4265"/>
<path d="M35.2388 18.0078H22.909C22.1923 18.0078 21.6111 18.589 21.6111 19.3057C21.6111 20.0225 22.1923 20.6036 22.909 20.6036H35.2388C35.9555 20.6036 36.5367 20.0225 36.5367 19.3057C36.5367 18.589 35.9555 18.0078 35.2388 18.0078Z" fill="#1E4265"/>
<path d="M17.393 20.6037C18.1097 20.6037 18.6909 20.0225 18.6909 19.3057C18.6909 18.589 18.1097 18.0078 17.393 18.0078H8.71344C7.99669 18.0078 7.41553 18.589 7.41553 19.3057C7.41553 20.0225 7.99646 20.6037 8.71344 20.6037H17.393Z" fill="#1E4265"/>
<path d="M24.369 29.3652H8.71344C7.99669 29.3652 7.41553 29.9464 7.41553 30.6632C7.41553 31.3799 7.99669 31.9611 8.71344 31.9611H24.369C25.0857 31.9611 25.6669 31.3799 25.6669 30.6632C25.6669 29.9464 25.0857 29.3652 24.369 29.3652Z" fill="#1E4265"/>
<path d="M19.502 35.043H8.71344C7.99669 35.043 7.41553 35.6241 7.41553 36.3409C7.41553 37.0576 7.99669 37.6388 8.71344 37.6388H19.502C20.2187 37.6388 20.7999 37.0576 20.7999 36.3409C20.7999 35.6241 20.2187 35.043 19.502 35.043Z" fill="#1E4265"/>
<path d="M17.8796 42.0186C17.8796 41.3019 17.2985 40.7207 16.5817 40.7207H8.71344C7.99669 40.7207 7.41553 41.3019 7.41553 42.0186C7.41553 42.7354 7.99669 43.3165 8.71344 43.3165H16.5818C17.2985 43.3164 17.8796 42.7354 17.8796 42.0186Z" fill="#1E4265"/>
<path d="M8.71344 46.3984C7.99669 46.3984 7.41553 46.9796 7.41553 47.6964C7.41553 48.4131 7.99669 48.9943 8.71344 48.9943H14.0671C14.7839 48.9943 15.3651 48.4131 15.3651 47.6964C15.3651 46.9796 14.7839 46.3984 14.0671 46.3984H8.71344Z" fill="#1E4265"/>
</svg>
